{
   "year":"2017",
   "months":[
     {
        "month":"JAN",
        "weeks": [{"status": false}, {"status": false}, {"status": false}, {"status": false}]
     },
     {
        "month":"FEB",
        "weeks": [{"status": false}, {"status": false}, {"status": false}, {"status": false}]
     },
      {
         "month":"MAR",
         "weeks": [{"status": false}, {"status": false}, {"status": false}, {"status": false}]
      },
      {
         "month":"JUN",
         "weeks": [{"status": false}, {"status": false}, {"status": false}, {"status": false}]
      },
      {
         "month":"JUL",
         "weeks": [{"status": false}, {"status": false}, {"status": false}, {"status": false}]
      },
      {
         "month":"AUG",
         "weeks": [{"status": false}, {"status": false}, {"status": false}, {"status": false}]
      },
      {
         "month":"SEP",
         "weeks": [{"status": false}, {"status": false}, {"status": false}, {"status": false}]
      },
      {
         "month":"OCT",
         "weeks": [{"status": false}, {"status": false}, {"status": false}, {"status": false}]
      }
   ]
}
